…
```r
zscore_hit_Met <- list(
  Day3 = find_zscore_hit(table_treate_vs_control = data_with_measure_Met$Day3,
                number_barcode = 7,
                metric = "median"),
  Day6 = find_zscore_hit(table_treate_vs_control = data_with_measure_Met$Day6,
                number_barcode = 7,
                metric = "median"))
zscore_hit_Met
```

```
## $Day3
## # A tibble: 30 × 2
##    Gene   numberOfBarcode
##    <fct>            <int>
##  1 ASF1A                8
##  2 BRD3                 8
##  3 CBX1                 8
##  4 CBX8                 9
##  5 CHST13               8
##  6 EED                  8
##  7 ENO3                 8
##  8 FBP2                 8
##  9 HDAC1                8
## 10 HERC3                9
## # … with 20 more rows
## 
## $Day6
## # A tibble: 30 × 2
##    Gene   numberOfBarcode
##    <fct>            <int>
##  1 ACOX2                9
##  2 BAZ1B                8
##  3 BAZ2B                8
##  4 BRD9                 8
##  5 CHAF1A               8
##  6 CLOCK                9
##  7 EP300                8
##  8 GPT                  8
##  9 H2AFV                9
## 10 HECTD3               9
## # … with 20 more rows
```
…
camera_hit_Met <- list(
  Day3 = find_camera_hit(screenR_Object = object,
                              matrix_model = matrix_model,
                              contrast = "Day3_Met"),
  Day6 = find_camera_hit(screenR_Object = object,
                              matrix_model = matrix_model,
                              contrast = "Day6_Met"))

camera_hit_Met
```

```
## $Day3
## # A tibble: 281 × 5
##    Gene    NGenes Direction PValue   FDR
##    <chr>    <dbl> <fct>      <dbl> <dbl>
##  1 INPP5E      10 Down      0.0131 0.522
##  2 LDHAL6B     10 Down      0.0189 0.674
##  3 CHD2        10 Down      0.0324 0.906
##  4 TRIM43B     10 Down      0.0414 0.906
##  5 TRIM9        9 Down      0.0447 0.906
##  6 TYMS         9 Down      0.0528 0.906
##  7 PDHA2       10 Down      0.0584 0.906
##  8 PRDM4       10 Down      0.0594 0.906
##  9 HUWE1       10 Down      0.0646 0.906
## 10 LUC         32 Down      0.0698 0.906
## # … with 271 more rows
## 
## $Day6
## # A tibble: 269 × 5
##    Gene    NGenes Direction PValue   FDR
##    <chr>    <dbl> <fct>      <dbl> <dbl>
##  1 INPP5E      10 Down      0.0131 0.779
##  2 LDHAL6B     10 Down      0.0201 0.941
##  3 CHD2        10 Down      0.0285 0.969
##  4 PDHA2       10 Down      0.0316 0.969
##  5 TRIM9        9 Down      0.0355 0.969
##  6 TYMS         9 Down      0.0370 0.969
##  7 TRIM62       9 Down      0.0437 0.969
##  8 TRIM43B     10 Down      0.0491 0.969
##  9 ME3         10 Down      0.0500 0.969
## 10 HUWE1       10 Down      0.0584 0.969
## # … with 259 more rows
```
…
```r
roast_hit_Met <- list(
  Day3 = find_roast_hit(screenR_Object = object,
                              matrix_model = matrix_model,
                              contrast = "Day3_Met"),
  Day6 = find_roast_hit(screenR_Object = object,
                              matrix_model = matrix_model,
                              contrast = "Day6_Met"))

roast_hit_Met
```

```
## $Day3
## # A tibble: 534 × 9
##    Gene   NGenes PropDown PropUp Direction PValue    FDR PValue.Mixed FDR.Mixed
##    <chr>   <int>    <dbl>  <dbl> <fct>      <dbl>  <dbl>        <dbl>     <dbl>
##  1 LUC        32        1      0 Down      0.0001 0.0001       0.0001    0.0001
##  2 PSMA1      12        1      0 Down      0.0001 0.0001       0.0001    0.0001
##  3 RPL30      12        1      0 Down      0.0001 0.0001       0.0001    0.0001
##  4 SEPT5      10        1      0 Down      0.0001 0.0001       0.0001    0.0001
##  5 SEPT9      10        1      0 Down      0.0001 0.0001       0.0001    0.0001
##  6 ACAA1      10        1      0 Down      0.0001 0.0001       0.0001    0.0001
##  7 ACAA2      10        1      0 Down      0.0001 0.0001       0.0001    0.0001
##  8 ACACA      10        1      0 Down      0.0001 0.0001       0.0001    0.0001
##  9 ACACB      10        1      0 Down      0.0001 0.0001       0.0001    0.0001
## 10 ACAD11     10        1      0 Down      0.0001 0.0001       0.0001    0.0001
## # … with 524 more rows
## 
## $Day6
## # A tibble: 534 × 9
##    Gene   NGenes PropDown PropUp Direction PValue    FDR PValue.Mixed FDR.Mixed
##    <chr>   <int>    <dbl>  <dbl> <fct>      <dbl>  <dbl>        <dbl>     <dbl>
##  1 LUC        32        1      0 Down      0.0001 0.0001       0.0001    0.0001
##  2 PSMA1      12        1      0 Down      0.0001 0.0001       0.0001    0.0001
##  3 RPL30      12        1      0 Down      0.0001 0.0001       0.0001    0.0001
##  4 SEPT5      10        1      0 Down      0.0001 0.0001       0.0001    0.0001
##  5 SEPT9      10        1      0 Down      0.0001 0.0001       0.0001    0.0001
##  6 ACAA1      10        1      0 Down      0.0001 0.0001       0.0001    0.0001
##  7 ACAA2      10        1      0 Down      0.0001 0.0001       0.0001    0.0001
##  8 ACACA      10        1      0 Down      0.0001 0.0001       0.0001    0.0001
##  9 ACACB      10        1      0 Down      0.0001 0.0001       0.0001    0.0001
## 10 ACAD11     10        1      0 Down      0.0001 0.0001       0.0001    0.0001
## # … with 524 more rows
```
…
