Set ScreenR data_table — set_data_table • ScreenR
…
    Value

The ScreenR object with the set data_table

    Examples

object <- get0("object", envir = asNamespace("ScreenR"))
data_table <- get_data_table(object)
#> ScreenR normalized data table containing:
#>  74480 rows
#>  9 columns
set_data_table(object, data_table)
#> An object of class "screenr_object"
#> Slot "count_table":
#> # A tibble: 5,320 × 15
#>    Barcode    T1    T2 Time3_T…¹ Time3…² Time3…³ Time3_A Time3_B Time3_C Time4…⁴
#>    <fct>   <int> <int>     <int>   <int>   <int>   <int>   <int>   <int>   <int>
#>  1 10208    3520  4283      2493    3998    3018    3393    3829    3474    2890
#>  2 10502     280   339       140     542     162     468     157     162     290
#>  3 10796    1507  1533      1120    1125    1286    1136    1095    1214     127
#>  4 11089    3797  4151      2296    3857    3645    3677    3124    3458    2321
#>  5 11382     717   644       564     336     256     554     590     735     319
#>  6 11675    7330  7593      4927    6211    6504    7781    7183    8339    6914
#>  7 11969    4854  5371      4251    4921    5424    4627    3952    4944    4236
#>  8 12263    1539  1171       764    1258     923    1503    1150    1834     947
#>  9 12555    4328  4051      3130    4720    4697    3870    3835    4201    5207
#> 10 12847     466   417       206     318     288     328     185     416     219
#> # … with 5,310 more rows, 5 more variables: Time4_TRT_B <int>,
#> #   Time4_TRT_C <int>, Time4_A <int>, Time4_B <int>, Time4_c <int>, and
#> #   abbreviated variable names ¹​Time3_TRT_A, ²​Time3_TRT_B, ³​Time3_TRT_C,
#> #   ⁴​Time4_TRT_A
#> 
#> Slot "annotation_table":
#> # A tibble: 5,320 × 5
#>    Gene     Barcode Gene_ID Sequence Library
#>    <chr>    <fct>   <lgl>   <lgl>    <lgl>  
#>  1 Gene_380 10208   NA      NA       NA     
#>  2 Gene_380 10502   NA      NA       NA     
#>  3 Gene_380 10796   NA      NA       NA     
#>  4 Gene_380 11089   NA      NA       NA     
#>  5 Gene_380 11382   NA      NA       NA     
#>  6 Gene_380 11675   NA      NA       NA     
#>  7 Gene_380 11969   NA      NA       NA     
#>  8 Gene_380 12263   NA      NA       NA     
#>  9 Gene_380 12555   NA      NA       NA     
#> 10 Gene_380 12847   NA      NA       NA     
#> # … with 5,310 more rows
#> 
#> Slot "groups":
#>  [1] T1/T2   T1/T2   Treated Treated Treated Control Control Control Treated
#> [10] Treated Treated Control Control Control
#> Levels: Control T1/T2 Treated
#> 
#> Slot "replicates":
#> [1] ""
#> 
#> Slot "normalized_count_table":
#> # A tibble: 5,320 × 15
#>    Barcode    T1    T2 Time3_T…¹ Time3…² Time3…³ Time3_A Time3_B Time3_C Time4…⁴
#>    <fct>   <dbl> <dbl>     <dbl>   <dbl>   <dbl>   <dbl>   <dbl>   <dbl>   <dbl>
#>  1 10208   330.  437.      365.    439.    311.    358.    425.    363.    323. 
#>  2 10502    26.2  34.6      20.5    59.5    16.7    49.3    17.4    16.9    32.5
#>  3 10796   141.  156.      164.    124.    132.    120.    121.    127.     14.2
#>  4 11089   356.  424.      336.    424.    375.    388.    346.    361.    260. 
#>  5 11382    67.2  65.7      82.6    36.9    26.3    58.4    65.4    76.8    35.7
#>  6 11675   687.  775.      722.    682.    669.    820.    797.    871.    774. 
#>  7 11969   455.  548.      623.    540.    558.    488.    438.    517.    474. 
#>  8 12263   144.  119.      112.    138.     95.0   158.    128.    192.    106. 
#>  9 12555   406.  413.      459.    518.    483.    408.    425.    439.    583. 
#> 10 12847    43.7  42.6      30.2    34.9    29.6    34.6    20.5    43.5    24.5
#> # … with 5,310 more rows, 5 more variables: Time4_TRT_B <dbl>,
#> #   Time4_TRT_C <dbl>, Time4_A <dbl>, Time4_B <dbl>, Time4_c <dbl>, and
#> #   abbreviated variable names ¹​Time3_TRT_A, ²​Time3_TRT_B, ³​Time3_TRT_C,
#> #   ⁴​Time4_TRT_A
#> 
#> Slot "data_table":
#> # A tibble: 74,480 × 9
#>    Barcode Gene     Sample      Frequency Sequence Library Gene_ID Day   Treat…¹
#>    <fct>   <chr>    <fct>           <dbl> <lgl>    <lgl>   <lgl>   <chr> <chr>  
#>  1 10208   Gene_380 T1               330. NA       NA      NA      T1    T1     
#>  2 10208   Gene_380 T2               437. NA       NA      NA      T2    T2     
#>  3 10208   Gene_380 Time3_TRT_A      365. NA       NA      NA      Time3 TRT    
#>  4 10208   Gene_380 Time3_TRT_B      439. NA       NA      NA      Time3 TRT    
#>  5 10208   Gene_380 Time3_TRT_C      311. NA       NA      NA      Time3 TRT    
#>  6 10208   Gene_380 Time3_A          358. NA       NA      NA      Time3 Time3  
#>  7 10208   Gene_380 Time3_B          425. NA       NA      NA      Time3 Time3  
#>  8 10208   Gene_380 Time3_C          363. NA       NA      NA      Time3 Time3  
#>  9 10208   Gene_380 Time4_TRT_A      323. NA       NA      NA      Time4 TRT    
#> 10 10208   Gene_380 Time4_TRT_B      382. NA       NA      NA      Time4 TRT    
#> # … with 74,470 more rows, and abbreviated variable name ¹​Treatment
…
