ScreenR Example Analysis • ScreenR
…
zscore_hit_TRT <- list(
    Time3 = find_zscore_hit(
        table_treate_vs_control = data_with_measure_TRT$Time3,
        number_barcode = 6, metric = "median"
    ),
    Time4 = find_zscore_hit(
        table_treate_vs_control = data_with_measure_TRT$Time4,
        number_barcode = 6, metric = "median"
    )
)
zscore_hit_TRT
#> $Time3
#> # A tibble: 83 × 2
#>    Gene     numberOfBarcode
#>    <chr>              <int>
#>  1 Gene_1                 7
#>  2 Gene_11                7
#>  3 Gene_116               8
#>  4 Gene_120               8
#>  5 Gene_121               7
#>  6 Gene_128               8
#>  7 Gene_15                7
#>  8 Gene_156               8
#>  9 Gene_158               7
#> 10 Gene_160               7
#> # ℹ 73 more rows
#> 
#> $Time4
#> # A tibble: 97 × 2
#>    Gene     numberOfBarcode
#>    <chr>              <int>
#>  1 Gene_107               7
#>  2 Gene_121               8
#>  3 Gene_125               7
#>  4 Gene_126               7
#>  5 Gene_134               7
#>  6 Gene_138               7
#>  7 Gene_139               7
#>  8 Gene_14                7
#>  9 Gene_147               8
#> 10 Gene_148               9
#> # ℹ 87 more rows
…
camera_hit_TRT <- list(
    Time3 = find_camera_hit(
        screenR_Object = object, matrix_model = matrix_model,
        contrast = "Time3_TRT",
    ),
    Time4 = find_camera_hit(
        screenR_Object = object, matrix_model = matrix_model,
        contrast = "Time4_TRT"
    )
)

camera_hit_TRT
#> $Time3
#> # A tibble: 258 × 5
#>    Gene     NGenes Direction   PValue      FDR
#>    <chr>     <dbl> <fct>        <dbl>    <dbl>
#>  1 Gene_372     12 Down      3.80e-15 1.93e-12
#>  2 Gene_364     12 Down      7.23e-15 1.93e-12
#>  3 Gene_374     10 Down      3.55e- 7 6.32e- 5
#>  4 Gene_282     10 Down      2.24e- 4 2.40e- 2
#>  5 Gene_75      10 Down      7.59e- 4 6.76e- 2
#>  6 Gene_323     10 Down      1.45e- 3 1.11e- 1
#>  7 Gene_179     10 Down      1.68e- 3 1.12e- 1
#>  8 Gene_117     10 Down      1.10e- 2 4.23e- 1
#>  9 Gene_228     10 Down      1.49e- 2 4.97e- 1
#> 10 Gene_211     10 Down      1.84e- 2 5.77e- 1
#> # ℹ 248 more rows
#> 
#> $Time4
#> # A tibble: 241 × 5
#>    Gene     NGenes Direction   PValue      FDR
#>    <chr>     <dbl> <fct>        <dbl>    <dbl>
#>  1 Gene_364     12 Down      1.13e-24 6.03e-22
#>  2 Gene_372     12 Down      3.46e-21 9.24e-19
#>  3 Gene_374     10 Down      9.55e- 8 1.70e- 5
#>  4 Gene_323     10 Down      7.27e- 7 9.70e- 5
#>  5 Gene_282     10 Down      6.22e- 6 6.64e- 4
#>  6 Gene_75      10 Down      1.76e- 5 1.57e- 3
#>  7 Gene_296     10 Down      1.31e- 4 1.00e- 2
#>  8 Gene_80      10 Down      5.72e- 4 3.82e- 2
#>  9 Gene_54      10 Down      7.94e- 3 3.26e- 1
#> 10 Gene_179     10 Down      1.13e- 2 3.94e- 1
#> # ℹ 231 more rows
…
roast_hit_TRT <- list(
    Time3 = find_roast_hit(
        screenR_Object = object, matrix_model = matrix_model,
        contrast = "Time3_TRT", 
    ),
    Time4 = find_roast_hit(
        screenR_Object = object, matrix_model = matrix_model,
        contrast = "Time4_TRT"
    )
)

roast_hit_TRT
#> $Time3
#> # A tibble: 30 × 9
#>    Gene    NGenes PropDown PropUp Direction PValue    FDR PValue.Mixed FDR.Mixed
#>    <chr>    <int>    <dbl>  <dbl> <fct>      <dbl>  <dbl>        <dbl>     <dbl>
#>  1 Gene_3…     12    0.917    0   Down      0.0001 0.0134       0.0001    0.0134
#>  2 Gene_3…     12    0.833    0   Down      0.0001 0.0134       0.0001    0.0134
#>  3 Gene_3…     10    0.7      0   Down      0.0002 0.0200       0.0008    0.0834
#>  4 Gene_88     10    0.5      0.1 Down      0.0003 0.0267       0.0025    0.145 
#>  5 Gene_1…     10    0.3      0   Down      0.0006 0.0489       0.0167    0.222 
#>  6 Gene_75     10    0.4      0   Down      0.0008 0.0501       0.0211    0.244 
#>  7 Gene_2…     10    0.5      0   Down      0.0012 0.0682       0.0263    0.264 
#>  8 Gene_2…     10    0.2      0   Down      0.0046 0.162        0.0752    0.410 
#>  9 Gene_4…     10    0.4      0.1 Down      0.0066 0.206        0.0108    0.162 
#> 10 Gene_3…     10    0.2      0   Down      0.0085 0.222        0.0193    0.232 
#> # ℹ 20 more rows
#> 
#> $Time4
#> # A tibble: 105 × 9
#>    Gene   NGenes PropDown PropUp Direction PValue     FDR PValue.Mixed FDR.Mixed
#>    <chr>   <int>    <dbl>  <dbl> <fct>      <dbl>   <dbl>        <dbl>     <dbl>
#>  1 Gene_…     12      1      0   Down      0.0001 0.00205       0.0001  0.000785
#>  2 Gene_…     12      1      0   Down      0.0001 0.00205       0.0001  0.000785
#>  3 Gene_…     10      0.9    0   Down      0.0001 0.00205       0.0001  0.000785
#>  4 Gene_…     10      0.9    0   Down      0.0001 0.00205       0.0001  0.000785
#>  5 Gene_…     10      0.7    0   Down      0.0001 0.00205       0.0001  0.000785
#>  6 Gene_…     10      0.7    0.1 Down      0.0001 0.00205       0.0001  0.000785
#>  7 Gene_…     10      0.7    0   Down      0.0001 0.00205       0.0001  0.000785
#>  8 Gene_…     10      0.6    0   Down      0.0001 0.00205       0.0002  0.00157 
#>  9 Gene_…     10      0.4    0.1 Down      0.0001 0.00205       0.0005  0.00293 
#> 10 Gene_…     10      0.4    0   Down      0.0001 0.00205       0.0135  0.0274  
#> # ℹ 95 more rows
…
